hardware/simulation/icarus/knn.vcd
$date
	Sat Jan  2 22:36:05 2021
$end
$version
	Icarus Verilog
$end
$timescale
	1ps
$end
$scope module iob_knn $end
$var wire 3 ! address [2:0] $end
$var wire 1 " clk $end
$var wire 32 # rdata [31:0] $end
$var wire 1 $ ready $end
$var wire 1 % rst $end
$var wire 1 & valid $end
$var wire 32 ' wdata [31:0] $end
$var wire 4 ( wstrb [3:0] $end
$var wire 32 ) KNN_zsw [31:0] $end
$var reg 1 * KNN_ENABLE $end
$var reg 1 + KNN_RESET $end
$var reg 16 , KNN_x1sw [15:0] $end
$var reg 16 - KNN_x2sw [15:0] $end
$var reg 16 . KNN_y1sw [15:0] $end
$var reg 16 / KNN_y2sw [15:0] $end
$var reg 32 0 dummy [31:0] $end
$var reg 32 1 rdata_int [31:0] $end
$var reg 1 2 ready_int $end
$var reg 1 3 rst_int $end
$var reg 1 4 write $end
$scope module knn0 $end
$var wire 1 * KNN_ENABLE $end
$var wire 1 " clk $end
$var wire 1 3 rst $end
$var wire 16 5 x1 [15:0] $end
$var wire 16 6 x2 [15:0] $end
$var wire 16 7 y1 [15:0] $end
$var wire 16 8 y2 [15:0] $end
$var wire 32 9 z [31:0] $end
$var reg 32 : dist_int [31:0] $end
$var reg 16 ; distx [15:0] $end
$var reg 16 < disty [15:0] $end
$upscope $end
$upscope $end
$scope module knn_tb $end
$var wire 32 = z [31:0] $end
$var reg 1 > KNN_ENABLE $end
$var reg 1 ? KNN_SAMPLE $end
$var reg 1 @ clk $end
$var reg 1 A rst $end
$var reg 16 B x1 [15:0] $end
$var reg 16 C x2 [15:0] $end
$var reg 16 D y1 [15:0] $end
$var reg 16 E y2 [15:0] $end
$scope module knn0 $end
$var wire 1 > KNN_ENABLE $end
$var wire 1 @ clk $end
$var wire 1 A rst $end
$var wire 16 F x1 [15:0] $end
$var wire 16 G x2 [15:0] $end
$var wire 16 H y1 [15:0] $end
$var wire 16 I y2 [15:0] $end
$var wire 32 J z [31:0] $end
$var reg 32 K dist_int [31:0] $end
$var reg 16 L distx [15:0] $end
$var reg 16 M disty [15:0] $end
$upscope $end
$upscope $end
$enddefinitions $end
#0
$dumpvars
bx M
bx L
bx K
bx J
bx I
bx H
bx G
bx F
bx E
bx D
bx C
bx B
0A
1@
0?
0>
bx =
bx <
bx ;
bx :
bx 9
bx 8
bx 7
bx 6
bx 5
x4
x3
x2
b0 1
bx 0
bx /
bx .
bx -
bx ,
x+
x*
bx )
bz (
bz '
z&
z%
x$
b0 #
z"
bz !
$end
#5000
0@
#7000
1A
#10000
1@
#15000
0@
#17000
0A
#20000
1@
#21000
1>
#25000
0@
#30000
1@
#31000
1?
#35000
0@
#40000
1@
#41000
0?
#45000
0@
#50000
1@
#51000
b100010 =
b100010 J
b100010 K
b101 M
b1111111111111101 L
b11 E
b11 I
b1000 D
b1000 H
b100 C
b100 G
b1 B
b1 F
#55000
0@
#60000
1@
#61000
b10000010100 =
b10000010100 J
b10000010100 K
b1111111111100010 M
b1111111111110100 L
b110010 E
b110010 I
b10100 D
b10100 H
b1111 C
b1111 G
b11 B
b11 F
#65000
0@
#70000
1@
#71000
b1100010101011011001 =
b1100010101011011001 J
b1100010101011011001 K
b1001110100 M
b1100011 L
b1100 E
b1100 I
b1010000000 D
b1010000000 H
b100001 C
b100001 G
b10000100 B
b10000100 F
